4.458556556512664247e+04 5.775793317778435743e+00 9.488092899668296013e+03 3.387896658889218149e-02 5.000000000000000000e+02
1.984893609235541226e+04 2.349027275199676357e+00 1.113254320484104255e+03 1.674513637599838248e-02 5.000000000000000000e+02
1.232559829959846684e+04 1.748978060564519543e+00 5.702380255114413785e+02 1.374489030282259952e-02 5.000000000000000000e+02
1.451529895323647725e+04 1.864937290159303318e+00 6.470364136311073935e+02 1.432468645079651610e-02 5.000000000000000000e+02
2.485755277691695665e+04 3.355469794785074900e+00 2.607793991888410801e+03 2.177734897392537283e-02 5.000000000000000000e+02
3.147121406973215562e+04 3.426636387868053468e+00 2.833365795552540021e+03 2.213318193934026706e-02 5.000000000000000000e+02
2.626843270139821107e+04 6.335845338108368807e+00 1.207527594344778845e+04 3.667922669054184820e-02 5.000000000000000000e+02
3.185818734129313816e+04 3.703570337674688240e+00 3.364246733927006062e+03 2.351785168837344092e-02 5.000000000000000000e+02
2.844223797746640048e+04 4.270263936003213523e+00 4.533909074238380526e+03 2.635131968001606928e-02 5.000000000000000000e+02
2.819031260719228158e+04 3.670235088053037220e+00 3.368215132541901767e+03 2.335117544026518374e-02 5.000000000000000000e+02
2.986672254578767024e+04 4.164154381854064724e+00 4.516165430081005070e+03 2.582077190927032501e-02 5.000000000000000000e+02
6.554849322837591171e+04 6.284383845775981747e+00 1.174335187749583201e+04 3.642191922887991207e-02 5.000000000000000000e+02
2.530588807928630104e+03 4.544357191625625347e-01 1.980408502595620490e+01 7.272178595812812951e-03 5.000000000000000000e+02
9.493196210229627468e+03 1.385973334341967123e+00 3.052266839177310089e+02 1.192986667170983783e-02 5.000000000000000000e+02
1.872371495477630378e+04 2.264141369730082953e+00 1.033480729308630771e+03 1.632070684865041463e-02 5.000000000000000000e+02
3.947239160746450216e+04 3.739073547277135479e+00 3.397083111954861124e+03 2.369536773638567656e-02 5.000000000000000000e+02
4.287850357715201244e+04 4.558732707580559484e+00 5.604440684541017617e+03 2.779366353790279839e-02 5.000000000000000000e+02
5.028866737990765978e+04 5.062896481521340419e+00 7.184138178781697206e+03 3.031448240760670210e-02 5.000000000000000000e+02
6.201839265351725044e+04 6.271764577562165321e+00 1.208975094147966956e+04 3.635882288781083077e-02 5.000000000000000000e+02
4.240717653731137398e+04 3.997601518590623293e+00 4.178801802186061650e+03 2.498800759295311674e-02 5.000000000000000000e+02
